Labs/Lab6/part1/simulation/qsim/part1.msim.vcd
$comment
	File created using the following command:
		vcd file part1.msim.vcd -direction
$end
$date
	Mon Nov 02 23:53:45 2015
$end
$version
	ModelSim Version 10.3d
$end
$timescale
	1ps
$end

$scope module part1_vlg_vec_tst $end
$var reg 10 ! KEY [9:0] $end
$var reg 10 " SW [9:0] $end
$var wire 1 # LEDR [9] $end
$var wire 1 $ LEDR [8] $end
$var wire 1 % LEDR [7] $end
$var wire 1 & LEDR [6] $end
$var wire 1 ' LEDR [5] $end
$var wire 1 ( LEDR [4] $end
$var wire 1 ) LEDR [3] $end
$var wire 1 * LEDR [2] $end
$var wire 1 + LEDR [1] $end
$var wire 1 , LEDR [0] $end
$var wire 1 - sampler $end

$scope module i1 $end
$var wire 1 . gnd $end
$var wire 1 / vcc $end
$var wire 1 0 unknown $end
$var tri1 1 1 devclrn $end
$var tri1 1 2 devpor $end
$var tri1 1 3 devoe $end
$var wire 1 4 SW[1]~input_o $end
$var wire 1 5 SW[2]~input_o $end
$var wire 1 6 SW[3]~input_o $end
$var wire 1 7 SW[4]~input_o $end
$var wire 1 8 SW[5]~input_o $end
$var wire 1 9 SW[6]~input_o $end
$var wire 1 : SW[7]~input_o $end
$var wire 1 ; SW[8]~input_o $end
$var wire 1 < SW[9]~input_o $end
$var wire 1 = KEY[1]~input_o $end
$var wire 1 > KEY[2]~input_o $end
$var wire 1 ? KEY[3]~input_o $end
$var wire 1 @ KEY[4]~input_o $end
$var wire 1 A KEY[5]~input_o $end
$var wire 1 B KEY[6]~input_o $end
$var wire 1 C KEY[7]~input_o $end
$var wire 1 D KEY[8]~input_o $end
$var wire 1 E KEY[9]~input_o $end
$var wire 1 F ~QUARTUS_CREATED_GND~I_combout $end
$var wire 1 G KEY[0]~input_o $end
$var wire 1 H SW[0]~input_o $end
$var wire 1 I D0|Q~0_combout $end
$var wire 1 J D0|Q~q $end
$upscope $end
$upscope $end
$enddefinitions $end
#0
$dumpvars
bx0 !
bx01 "
0,
0+
0*
0)
0(
0'
0&
0%
0$
0#
x-
0.
1/
x0
11
12
13
04
x5
x6
x7
x8
x9
x:
x;
x<
x=
x>
x?
x@
xA
xB
xC
xD
xE
0F
0G
1H
0I
0J
$end
#20000
bx1 !
0-
1G
#40000
bx0 !
1-
0G
#60000
bx1 !
0-
1G
#80000
bx0 !
1-
0G
#100000
bx1 !
0-
1G
#110000
bx11 "
14
1-
#120000
bx0 !
0-
0G
#140000
bx1 !
1-
1G
#160000
bx0 !
0-
0G
#180000
bx1 !
1-
1G
#200000
bx0 !
0-
0G
#220000
bx1 !
1-
1G
#240000
bx01 "
bx0 !
04
0-
0G
#260000
bx1 !
1-
1G
#280000
bx0 !
0-
0G
#300000
bx1 !
1-
1G
#320000
bx0 !
0-
0G
#340000
bx1 !
1-
1G
#360000
bx0 !
0-
0G
#380000
bx1 !
1-
1G
#390000
bx11 "
14
0-
#400000
bx0 !
1-
0G
#420000
bx1 !
0-
1G
#440000
bx0 !
1-
0G
#460000
bx1 !
0-
1G
#480000
bx0 !
1-
0G
#500000
bx1 !
0-
1G
#520000
bx0 !
1-
0G
#540000
bx1 !
0-
1G
#560000
bx0 !
1-
0G
#580000
bx1 !
0-
1G
#600000
bx0 !
1-
0G
#620000
bx1 !
0-
1G
#640000
bx0 !
1-
0G
#660000
bx1 !
0-
1G
#680000
bx0 !
1-
0G
#700000
bx1 !
0-
1G
#720000
bx0 !
1-
0G
#740000
bx01 "
bx1 !
04
0-
1G
#760000
bx0 !
1-
0G
#780000
bx1 !
0-
1G
#800000
bx0 !
1-
0G
#820000
bx1 !
0-
1G
#840000
bx0 !
1-
0G
#860000
bx1 !
0-
1G
#880000
bx0 !
1-
0G
#900000
bx1 !
0-
1G
#920000
bx0 !
1-
0G
#940000
bx1 !
0-
1G
#960000
bx0 !
1-
0G
#980000
bx1 !
0-
1G
